{
	"maxNumberOfLines" : 1111,
	"symbol" : "CHC",
	"creator" : "AMbQxtDNMxrMkUVb5fDaBKQFutvTS2SerfhG7DBgokaN",
	"sellerFee" : 2000,
	"updateAuthority" : "5naz6yeUatB3QmYApqxM1qGKDHLuxrMzVcHto1gyyxkk",
	"scobyWallet" : "BhfqmcMMEbf5gRJ4hwXzmso7BiBYztpnuqTjzXNt9sEe",
	"mintingGenesisPrice" : 0.9866,
	"mintingPrice" : 0.9866,
	"royaltyForMinting" : {
		"scoby" : 300,
		"creator" : 7000,
		"creatorScout" : 700,
		"parent" : 1500,
		"grandParent" : 500
	},
	"royaltyForTrading" : {
		"scoby" : 10,
		"creator" : 50,
		"creatorScout" : 15,
		"parent" : 25,
		"grandParent" : 0
	}
}